<svg xmlns="http://www.w3.org/2000/svg" xmlns:xlink="http://www.w3.org/1999/xlink" preserveAspectRatio="xMidYMid" width="43" height="36" viewBox="0 0 43 36">
  <defs>
    <style>
      .cls-1 {
        fill: #000;
        opacity: 0.5;
        fill-rule: evenodd;
      }
    </style>
  </defs>
  <path d="M21.055,0.896 C9.455,0.896 0.052,10.293 0.052,21.884 C0.052,26.936 1.838,31.568 4.814,35.189 C5.273,31.518 8.943,28.412 14.090,26.942 C15.971,28.692 18.400,29.754 21.055,29.754 C23.649,29.754 26.030,28.746 27.891,27.068 C33.083,28.669 36.674,31.955 36.792,35.777 C40.068,32.075 42.059,27.212 42.059,21.884 C42.059,10.293 32.655,0.896 21.055,0.896 ZM21.055,27.269 C19.714,27.269 18.451,26.902 17.329,26.263 C14.626,24.725 12.764,21.581 12.764,17.949 C12.764,12.810 16.483,8.628 21.055,8.628 C25.627,8.628 29.346,12.810 29.346,17.949 C29.346,21.636 27.427,24.821 24.656,26.331 C23.565,26.926 22.346,27.269 21.055,27.269 Z" class="cls-1"/>
</svg>
